C,max_iter,mean_squared_error,r2
1.0,1000,2.450243354548858,-1.1234304390779637
1.0,2000,2.3491201797079744,-1.0359311549648371
2.0,1000,2.6793710220891054,-1.3218735360276153
2.0,2000,1.9259827779857732,-0.6691259755502014
4.0,1000,2.3564956944964432,-1.042222301196549
4.0,2000,2.0999625608386374,-0.8199622476813913
8.0,1000,2.2892549606888806,-0.983686007407163
8.0,2000,2.3596031448895545,-1.04498801343131
