C,degree,max_iter,mean_squared_error,r2
1.0,3,1000,2.1016847622613253,-0.8213249030821013
1.0,3,2000,1.933508049419693,-0.6756017461207452
1.0,7,1000,2.214863347061026,-0.9194086823434806
1.0,7,2000,2.2030700112317483,-0.9091862818551493
2.0,3,1000,2.1014226881317857,-0.8211208680455717
2.0,3,2000,1.882178959191314,-0.6311066736054625
2.0,7,1000,2.2153126169973794,-0.9197977464899643
2.0,7,2000,2.200748783227256,-0.9071750268789521
4.0,3,1000,2.0901909397229503,-0.8113650454852289
4.0,3,2000,1.9807188318981654,-0.7165285012906691
4.0,7,1000,2.2026956196181207,-0.9088717838116683
4.0,7,2000,2.205952826656683,-0.9116868812932396
8.0,3,1000,2.0672032946462,-0.791468260054531
8.0,3,2000,2.22298764507675,-0.9264336837722581
8.0,7,1000,2.2058405091725946,-0.9115943587930251
8.0,7,2000,2.2164357918382627,-0.9207629722688645
