train_loss,valid_loss
2.302585065629747,2.3025827741622926
2.3025818634033204,2.3025853085517882
2.3025808715820313,2.302583439350128
2.302580975956387,2.302579720020294
2.302580926683214,2.302583918571472
2.30258258872562,2.302581434249878
2.302581247223748,2.3025845527648925
2.302582406202952,2.3025797820091247
2.3025808148913915,2.302581217288971
2.302581685649024,2.302581377029419
2.3025818758540684,2.302587585449219
2.3025811767578124,2.3025813245773317
2.3025826727019414,2.302581477165222
2.302581344180637,2.3025775241851805
2.3025802824232313,2.3025852918624876
2.302581091986762,2.3025811409950254
2.302581022845374,2.302586648464203
2.3025804328918458,2.302588517665863
2.3025810731781853,2.3025843787193296
2.3025819132063123,2.3025816679000854
2.3025817275047302,2.302580859661102
2.302581764062246,2.302588188648224
2.3025808519787256,2.3025814366340636
2.302581708431244,2.3025747680664064
2.3025817131996154,2.3025847458839417
2.3025812429851955,2.302586395740509
2.302581371996138,2.302585234642029
2.302582654688093,2.3025834512710572
2.302581323782603,2.3025781750679015
2.3025818326738148,2.302583649158478
2.3025820231437684,2.3025810742378234
2.3025816384951274,2.3025791168212892
2.3025830104615954,2.3025842094421387
2.3025819934739005,2.302586886882782
2.302582028441959,2.302583475112915
2.302582601706187,2.302587013244629
2.302580546008216,2.302581243515015
2.302581464184655,2.3025812983512877
2.3025818265808953,2.3025866746902466
2.302581272919973,2.302585551738739
