train_loss,valid_loss
2.302568890783522,2.3025857281684874
2.3025742586453757,2.3025849270820617
2.302574468453725,2.302569873332977
2.3025717616081236,2.302582809925079
2.302577392790053,2.302575182914734
2.3025707456800673,2.302570314407349
2.302578302224477,2.3025774908065797
2.3025729937023587,2.30257141828537
2.302575858169132,2.30257604598999
2.302574840121799,2.302577657699585
2.3025758380360073,2.302576081752777
2.3025727687941657,2.3025638699531554
2.302568782435523,2.3025760507583617
2.3025738334655763,2.3025981545448304
2.302573459148407,2.3025890016555786
2.3025745617018805,2.3025692749023436
2.3025713907347787,2.30258504152298
2.302573251724243,2.302572431564331
2.3025727732976278,2.302574255466461
2.3025748173395795,2.3025677251815795
2.302575331793891,2.3025951743125916
2.302576026386685,2.30258216381073
2.3025689845614963,2.3025687408447264
2.302575066619449,2.302580699920654
2.302575138145023,2.302574808597565
2.3025755090183684,2.3025683188438415
2.3025782516267563,2.3025772881507875
2.3025767114427356,2.302577946186066
2.3025774513350594,2.3025608015060426
2.3025742395718893,2.302591664791107
2.3025751974847584,2.3025689268112184
2.302572442425622,2.3025821542739866
2.302578802373674,2.30257399559021
2.3025764301088123,2.3025809597969054
2.302574031352997,2.3025633001327517
2.302573353184594,2.302582950592041
2.3025746610429554,2.302564888000488
2.3025755296813117,2.3025770211219787
2.302573023637136,2.3025853991508485
2.3025742893748813,2.302572040557861
