train_loss,valid_loss
2.30253660413954,2.3025642919540403
2.3025615549087526,2.302532346248627
2.302562793890635,2.3025817108154296
2.3025638302167257,2.3025878834724427
2.302565615706974,2.3025726675987244
2.302567313247257,2.302567632198334
2.302561537159814,2.302560420036316
2.3025675802760652,2.3025559687614443
2.3025663916269936,2.3025639390945436
2.302564656999376,2.3025692296028137
2.3025669492615592,2.3025357818603513
2.3025580750571355,2.3025731945037844
2.3025624537467957,2.3026094007492066
2.302570092148251,2.302575047016144
2.302568076716529,2.30255939245224
2.3025611511866253,2.302548747062683
2.302564390765296,2.302565059661865
2.3025630723105537,2.3025806760787964
2.3025643192397225,2.302572102546692
2.302565985255771,2.302539987564087
2.3025608780648974,2.3025339889526366
2.3025666748152838,2.3025572228431703
2.302565038204193,2.3025711083412173
2.3025664292441475,2.3025450921058654
2.3025677948527865,2.3025662469863892
2.302562508583069,2.3025714707374574
2.302567610475752,2.302558901309967
2.302564673953586,2.302562174797058
2.302568285200331,2.302563443183899
2.3025676306088765,2.3025570011138914
2.302567896048228,2.3025623178482055
2.3025625570615134,2.3025609612464906
2.3025659902890525,2.3025462579727174
2.302561606831021,2.3025761914253233
2.30256285905838,2.302543804645538
2.3025635589493647,2.302549364566803
2.302567983733283,2.3025747466087343
2.3025656660397846,2.302576129436493
2.302564055389828,2.3025654673576357
2.3025650858879088,2.3025925278663637
